{
	"": "",
	"*": "",
	"HTTP": "",
	"HTTPS": "",
	"Meta-Press.es": "",
	"contact@meta-press.es": "",
	"🔍": "",
	"➖": "",
	"📰": "",
	"📃": "",
	"⏰": "",
	"🗑 ": "",
	"🗑": "",
	"☑": "",
	"☐": "",
	"\t◨": "",
	" (": "",
	"(": "",
	"...": "",
	"null": "",
	"-": "",
	"✏️": "",
	"✎": "",
	"✖": "",
	"💾": "",
	".": "",
	"\"": "",
	" + ": "",
	"+": "",
	"abc": "",
	",": "",
	", ": "",
	"}": "",
	"New Europe": "",
	"RSS": "",
	" RSS": "",
	"ATOM": "",
	"CSV": "",
	";": "",
	"Press, Illustrated": "",
	"Press, Reference Press": "",
	"Press, Regional Daily Press, Illustrated": "",
	"Press, Regional Daily Press": "",
	"Magazine, Doc., Press": "",
	"New Europe Greece": "",
	"Washingtown Post": "",
	"JSON": "",
	"the Japan News": "",
	"POST": "",
	"Mediapart.fr": "",
	"CSS": "",
	"Helsinki Times": "",
	"XPath": "",
	"CodeMirror": "",
	"Elisa de Castro Guerra": "",
	"?": "",
	"⚙": "",
	"[+]": "",
	"↶": "",
	"✘": "",
	"s": "",
	"↗": "",
	" 🔗": "",
	"↻": "",
	"➕": "",
	")": "",
	"↓": "",
	"►": "",
	"⚠": "",
	"✔": "",
	" HelloAsso": "",
	"Acoeuro.com": "",
	"List.js": "",
	"Bootstrap": "",
	"Gettext hTml Auto": "",
	"https://framagit.org/Siltaar/meta-press-ext/issues": "",
	"https://acoeuro.com/": "",
	"https://listjs.com/": "",
	"Choices.js": "",
	"https://github.com/jshjohnson/Choices": "",
	"https://joshuajohnson.co.uk/Choices/": "",
	"https://getbootstrap.com/": "",
	"https://www.meta-press.es/": "",
	"https://framagit.org/Siltaar/meta-press-ext/blob/master/json/sources.json": "",
	"https://framagit.org/Siltaar/meta-press-ext": "",
	"https://codemirror.net/": "",
	"http://www.yemanjalisa.net/": "",
	"https://framagit.org/Siltaar/gettext_html_auto.js": "",
	"https://www.meta-press.es/pages/meta-press.es_documentation.html": "",
	"https://liberapay.com/Meta-Press.es": "",
	"https://liberapay.com/Siltaar": "",
	"https://www.patreon.com/metapress": "",
	" : #meta-press.es@geeknode.org": "",
	"IRC": "",
	"Patreon": "",
	"Liberapay": "",
	"Bitcoin": "",
	"Ethereum": "",
	"G1 / June": "",
	" HelloAsso": "",
	"1970-01-03": "",
	"Français": "",
	"Esperanto": "",
	"Español": "",
	"dark": "",
	"light": "",
	"{\n\t\"https://www.custom-source.eu\": {\n\t\t\"headline_url\": \"https://www.custom-source.eu\",\n\t\t\"headline_selector\": \"#custom_headline a\",\n\t\t\"search_url\": \"https://www.custom-source.eu/search/{}/feed/rss2/\",\n\t\t\"favicon_url\": \"https://www.custom-source.eu/custom/favicon.png\",\n\t\t\"type\": \"XML\",\n\t\t\"xml_type\": \"RSS\",\n\t\t\"tags\": {\n\t\t\t\"name\": \"Custom Source\",\n\t\t\t\"lang\": \"en\",\n\t\t\t\"country\": \"be\",\n\t\t\t\"themes\": [\"general\", \"financial\"],\n\t\t\t\"tech\": [\"slow\", \"many words\"],\n\t\t\t\"src_type\": \"Press\",\n\t\t\t\"res_type\": \"text\"\n\t\t},\n\t\t\"positive_test_search_term\": [\"quadrature du net\"]\n\t}\n}\n\t\t": ""
}
